^D:\Projects\personal\Scratchpad\vkTest00\vkTest00.vcxproj
D:\Projects\personal\Scratchpad\Release\vkTest00.lib
D:\Projects\personal\Scratchpad\Release\vkTest00.exp
D:\Projects\personal\Scratchpad\Release\vkTest00.ipdb
D:\Projects\personal\Scratchpad\Release\vkTest00.iobj
